Analyzing Tobacco Usage in the US from 2000 - Present
…
read_log(): web log files

If you would like to learn more about readr, check out its github page

The following code-snippet assumes that the .csv file we downloaded earlier from data.gov is in the same directory as the R script. At the end of this snippet, tob_df represents a dataframe containing the data from the .csv file. A dataframe encapsulates the idea of entities in rows and attributes in the columns. These dataframes are often called rectangular datasets since they are rectangular in shape. The layout of the dataframe should look familiar and much easier to understand than the raw values present in the original csv file. Additionally, when converting the csv into a dataframe, readr assigns a type for each column. These type definitions are helpful to us since they explicitly list out the kind of data present in each column.

library(tidyverse)

csv_loc <- "Adult_Tobacco_Consumption_In_The_U.S.__2000-Present.csv"
tob_df <- read_csv(csv_loc)

tob_df

## # A tibble: 221 x 14
##     Year LocationAbbrev LocationDesc Population Topic  Measure  Submeasure
##    <int> <chr>          <chr>             <int> <chr>  <chr>    <chr>     
##  1  2000 US             National      209786736 Combu All Com Total Com
##  2  2001 US             National      212345162 Combu All Com Total Com
##  3  2002 US             National      214754648 Combu All Com Total Com
##  4  2003 US             National      217068101 Combu All Com Total Com
##  5  2004 US             National      219552929 Combu All Com Total Com
##  6  2005 US             National      222003984 Combu All Com Total Com
##  7  2006 US             National      224583123 Combu All Com Total Com
##  8  2007 US             National      227239768 Combu All Com Total Com
##  9  2008 US             National      229945137 Combu All Com Total Com
## 10  2009 US             National      232458335 Combu All Com Total Com
## # ... with 211 more rows, and 7 more variables: `Data Value Unit` <chr>,
## #   Domestic <dbl>, Imports <dbl>, Total <dbl>, `Domestic Per
## #   Capita` <int>, `Imports Per Capita` <int>, `Total Per Capita` <int>

Cleaning Data

Now that we have a dataframe, you may feel ready to start doing analysis using the data, but we must clean the data first. Looking at our dataframe, it doesnt look like we need the LocationAbbrev or LocationDesc columns since the only values present in those two columns are US and National respectively. Since these columns are not adding any value or providing more context, we can simply remove them. In the following code-snippet, we remove the LocationAbbrev and LocationDesc columns using dplyr functions. Using select(-c(LocationAbbrev, LocationDesc)) means that we want to select all the columns except LocationAbbrev and LocationDesc. Further, the %>% symbol is a pipe and effectively just passes the dataframe to the next function in the pipe. For example, the select function receieves tob_df as an argument.

clean_tob_df <- tob_df %>%
  select(-c(LocationAbbrev, LocationDesc))

clean_tob_df

## # A tibble: 221 x 12
##     Year Population Topic   Measure  Submeasure  `Data Value Uni Domestic
##    <int>      <int> <chr>   <chr>    <chr>       <chr>               <dbl>
##  1  2000  209786736 Combus All Com Total Comb Cigarette Equiv  4.37e11
##  2  2001  212345162 Combus All Com Total Comb Cigarette Equiv  4.24e11
##  3  2002  214754648 Combus All Com Total Comb Cigarette Equiv  4.08e11
##  4  2003  217068101 Combus All Com Total Comb Cigarette Equiv  3.91e11
##  5  2004  219552929 Combus All Com Total Comb Cigarette Equiv  3.90e11
##  6  2005  222003984 Combus All Com Total Comb Cigarette Equiv  3.81e11
##  7  2006  224583123 Combus All Com Total Comb Cigarette Equiv  3.83e11
##  8  2007  227239768 Combus All Com Total Comb Cigarette Equiv  3.68e11
##  9  2008  229945137 Combus All Com Total Comb Cigarette Equiv  3.57e11
## 10  2009  232458335 Combus All Com Total Comb Cigarette Equiv  3.29e11
## # ... with 211 more rows, and 5 more variables: Imports <dbl>,
## #   Total <dbl>, `Domestic Per Capita` <int>, `Imports Per Capita` <int>,
## #   `Total Per Capita` <int>
…
This graph shows us how population has changed overtime. Clearly, population has been increasing as time goes on. While this graph simply confirmed our original idea, there is alot of code necessary to generate this graph when compared to the amount of code required to load and clean the dataframe. Lets start working on the code necesary to generate the graph from above. The first step is group the data by year:

clean_tob_df %>%
  group_by(Year)

## # A tibble: 221 x 12
## # Groups:   Year [17]
##     Year Population Topic   Measure  Submeasure  `Data Value Uni Domestic
##    <int>      <int> <chr>   <chr>    <chr>       <chr>               <dbl>
##  1  2000  209786736 Combus All Com Total Comb Cigarette Equiv  4.37e11
##  2  2001  212345162 Combus All Com Total Comb Cigarette Equiv  4.24e11
##  3  2002  214754648 Combus All Com Total Comb Cigarette Equiv  4.08e11
##  4  2003  217068101 Combus All Com Total Comb Cigarette Equiv  3.91e11
##  5  2004  219552929 Combus All Com Total Comb Cigarette Equiv  3.90e11
##  6  2005  222003984 Combus All Com Total Comb Cigarette Equiv  3.81e11
##  7  2006  224583123 Combus All Com Total Comb Cigarette Equiv  3.83e11
##  8  2007  227239768 Combus All Com Total Comb Cigarette Equiv  3.68e11
##  9  2008  229945137 Combus All Com Total Comb Cigarette Equiv  3.57e11
## 10  2009  232458335 Combus All Com Total Comb Cigarette Equiv  3.29e11
## # ... with 211 more rows, and 5 more variables: Imports <dbl>,
## #   Total <dbl>, `Domestic Per Capita` <int>, `Imports Per Capita` <int>,
## #   `Total Per Capita` <int>

We use the group_by function to treat all the elements of the same year as one group. This means that internally, R understands that when were talking about the year 2000, we are talking about all the rows in the table with Year = 2000. If it helps, you can visually/conceptually think of group_by as the following:

clean_tob_df %>%
  group_by(Year) %>%
  arrange(Year)

## # A tibble: 221 x 12
## # Groups:   Year [17]
##     Year Population Topic   Measure  Submeasure  `Data Value Uni Domestic
##    <int>      <int> <chr>   <chr>    <chr>       <chr>               <dbl>
##  1  2000  209786736 Combus All Com Total Comb Cigarette Equiv  4.37e11
##  2  2000  209786736 Combus Cigaret Cigarette  Cigarettes        4.23e11
##  3  2000  209786736 Combus Cigars   Large Ciga Cigars            3.37e 9
##  4  2000  209786736 Combus Cigars   Small Ciga Cigars            2.24e 9
##  5  2000  209786736 Combus Cigars   Total Ciga Cigars            5.61e 9
##  6  2000  209786736 Combus Loose T Pipe Tobac Cigarette Equiv  2.64e 9
##  7  2000  209786736 Combus Loose T Pipe Tobac Pounds            5.35e 6
##  8  2000  209786736 Combus Loose T Roll-Your- Cigarette Equiv  5.66e 9
##  9  2000  209786736 Combus Loose T Roll-Your- Pounds            1.15e 7
## 10  2000  209786736 Combus Loose T Total Loos Cigarette Equiv  8.29e 9
## # ... with 211 more rows, and 5 more variables: Imports <dbl>,
## #   Total <dbl>, `Domestic Per Capita` <int>, `Imports Per Capita` <int>,
## #   `Total Per Capita` <int>
…
The first step to answering this question figuring out the best to numerically represent popularity. In this case, we can measure the popularity of a combustible tobacco and noncombustible tobacco by measuring how many units of each are sold per year. Fortunately, the dataframe provides a measure for the number of total combustible tobacco products sold per year so we can use that value, but we need to manually calculate the number of noncombustible products sold each year.

Lets start by creating a new dataframe from clean_tob_df:

g2_df <- clean_tob_df %>%
  subset(Measure=="All Combustibles" | Topic=="Noncombustible Tobacco") %>% # pick rows that either represent all combustibles or noncombustible tobacco
  group_by(Year, Topic) %>% # group the data by year and topic
  mutate(g_total=sum(Total)) %>% # get grand total for yearly sales
  select(Year, Topic, g_total) %>% # only select the columns we care about to make reading the dataframe easier
  distinct %>% # remove any duplicate rows so that we only have one entry for each year's totals for Combustible and Noncombustible tobacco
  arrange(Year) # arrange data by year to make it easier to read

g2_df

## # A tibble: 34 x 3
## # Groups:   Year, Topic [34]
##     Year Topic                        g_total
##    <int> <chr>                          <dbl>
##  1  2000 Combustible Tobacco    450725147466.
##  2  2000 Noncombustible Tobacco    111746480.
##  3  2001 Combustible Tobacco    440692797606.
##  4  2001 Noncombustible Tobacco    119316167.
##  5  2002 Combustible Tobacco    430763441596.
##  6  2002 Noncombustible Tobacco    118563742.
##  7  2003 Combustible Tobacco    415930004609.
##  8  2003 Noncombustible Tobacco    120789550.
##  9  2004 Combustible Tobacco    414421172579.
## 10  2004 Noncombustible Tobacco    121149360.
## # ... with 24 more rows
…
Introduction

In this part of the tutorial, I am going to gloss over anything that was covered earlier and assume understanding of the above material. I will still include code examples and the such, but will be primarily focusing on explaning the concepts behind hypothesis testing. Our goal with this data is to determine some interesting trends or relationships between the data and to see if we can conclusively say that a categorical variable like race or location has to do with smoking tobacco.

Data Collection and Cleaning

Lets input the data like we did previously:

csv <- "Behavioral_Risk_Factor_Data__Tobacco_Use__2011_to_present_.csv"
risk_df <- read_csv(csv)

risk_df

## # A tibble: 14,069 x 31
##    YEAR   LocationAbbr LocationDesc TopicType   TopicDesc   MeasureDesc   
##    <chr>  <chr>        <chr>        <chr>       <chr>       <chr>         
##  1 2014- AL           Alabama      Tobacco Us Cigarette  Current Smoki
##  2 2014- AL           Alabama      Tobacco Us Cigarette  Current Smoki
##  3 2014- AL           Alabama      Tobacco Us Cigarette  Current Smoki
##  4 2014- AL           Alabama      Tobacco Us Cigarette  Current Smoki
##  5 2014- AL           Alabama      Tobacco Us Cigarette  Current Smoki
##  6 2014- AK           Alaska       Tobacco Us Cigarette  Current Smoki
##  7 2014- AK           Alaska       Tobacco Us Cigarette  Current Smoki
##  8 2014- AK           Alaska       Tobacco Us Cigarette  Current Smoki
##  9 2014- AK           Alaska       Tobacco Us Cigarette  Current Smoki
## 10 2014- AK           Alaska       Tobacco Us Cigarette  Current Smoki
## # ... with 14,059 more rows, and 25 more variables: DataSource <chr>,
## #   Response <chr>, Data_Value_Unit <chr>, Data_Value_Type <chr>,
## #   Data_Value <dbl>, Data_Value_Footnote_Symbol <chr>,
## #   Data_Value_Footnote <chr>, Data_Value_Std_Err <dbl>,
## #   Low_Confidence_Limit <dbl>, High_Confidence_Limit <dbl>,
## #   Sample_Size <int>, Gender <chr>, Race <chr>, Age <chr>,
## #   Education <chr>, GeoLocation <chr>, TopicTypeId <chr>, TopicId <chr>,
## #   MeasureId <chr>, StratificationID1 <chr>, StratificationID2 <chr>,
## #   StratificationID3 <chr>, StratificationID4 <chr>, SubMeasureID <chr>,
## #   DisplayOrder <int>

As you can tell, this dataset contains significantly more datapoints and columns. As such, we should clean up this table first so that it only contains information that we want.

clean_df <- risk_df %>%
  select(-c(StratificationID1, StratificationID2, StratificationID3, StratificationID4)) %>%
  select(-c(Response, Data_Value_Footnote_Symbol, Data_Value_Unit, DataSource, Data_Value_Footnote)) %>%
  select(-c(Data_Value_Std_Err, Low_Confidence_Limit, High_Confidence_Limit)) %>%
  arrange(DisplayOrder) %>%
  na.omit() %>%
  filter(DisplayOrder > 30)

clean_df

## # A tibble: 1,324 x 19
##    YEAR   LocationAbbr LocationDesc TopicType   TopicDesc   MeasureDesc   
##    <chr>  <chr>        <chr>        <chr>       <chr>       <chr>         
##  1 2014- AL           Alabama      Tobacco Us Cigarette  Current Smoki
##  2 2014- AK           Alaska       Tobacco Us Cigarette  Current Smoki
##  3 2014- AZ           Arizona      Tobacco Us Cigarette  Current Smoki
##  4 2014- AR           Arkansas     Tobacco Us Cigarette  Current Smoki
##  5 2014- CA           California   Tobacco Us Cigarette  Current Smoki
##  6 2014- CO           Colorado     Tobacco Us Cigarette  Current Smoki
##  7 2014- CT           Connecticut  Tobacco Us Cigarette  Current Smoki
##  8 2014- FL           Florida      Tobacco Us Cigarette  Current Smoki
##  9 2014- GA           Georgia      Tobacco Us Cigarette  Current Smoki
## 10 2014- GU           Guam         Tobacco Us Cigarette  Current Smoki
## # ... with 1,314 more rows, and 13 more variables: Data_Value_Type <chr>,
## #   Data_Value <dbl>, Sample_Size <int>, Gender <chr>, Race <chr>,
## #   Age <chr>, Education <chr>, GeoLocation <chr>, TopicTypeId <chr>,
## #   TopicId <chr>, MeasureId <chr>, SubMeasureID <chr>, DisplayOrder <int>
…
